RMSTD difference plots
…
rmst_table |> print(n = 20)

# A tibble: 27 × 11
   Model      Subgroup      Time  ΔRMST difference difference_lci difference_uci
   <chr>      <chr>         <chr> <chr>      <dbl>          <dbl>          <dbl>
 1 Overall    Overall       5 yr  0.82…      0.821         0.560           1.08 
 2 Overall    Overall       10 yr 3.91…      3.91          3.08            4.74 
 3 Overall    Overall       20 yr 17.0…     17.1          15.2            18.9  
 4 Sex1       Men           5 yr  0.98…      0.981         0.540           1.42 
 5 Sex1       Men           10 yr 4.58…      4.58          3.18            5.99 
 6 Sex1       Men           20 yr 18.4…     18.4          14.9            22.0  
 7 Sex2       Women         5 yr  0.64…      0.645         0.388           0.902
 8 Sex2       Women         10 yr 3.11…      3.11          2.26            3.97 
 9 Sex2       Women         20 yr 15.2…     15.2          13.0            17.5  
10 Age_grp1   Age grp <35   5 yr  0.41…      0.414         0.160           0.669
11 Age_grp1   Age grp <35   10 yr 1.60…      1.60          0.615           2.58 
12 Age_grp1   Age grp <35   20 yr 5.35…      5.35          1.69            9.00 
13 Age_grp2   Age grp 35-49 5 yr  0.59…      0.593         0.238           0.948
14 Age_grp2   Age grp 35-49 10 yr 3.17…      3.17          1.49            4.84 
15 Age_grp2   Age grp 35-49 20 yr 14.7…     14.7           3.54           25.9  
16 Age_grp3   Age grp ≥50   5 yr  1.12…      1.12          0.644           1.60 
17 Age_grp3   Age grp ≥50   10 yr 5.04…      5.04          1.97            8.10 
18 Age_grp3   Age grp ≥50   20 yr 20.1…     20.1          -0.937          41.2  
19 HPA_1_test HPA, 1 test   5 yr  0.43…      0.432         0.0845          0.779
20 HPA_1_test HPA, 1 test   10 yr 2.15…      2.15          1.04            3.26 
# ℹ 7 more rows
# ℹ 4 more variables: years_gain_per_1000 <dbl>, years_gain_per_1000_lci <dbl>,
#   years_gain_per_1000_uci <dbl>, months_gain_per_100py <dbl>
…
rmst_line_data |>  print(n = 20)

# A tibble: 216 × 13
   Subgroup groups      time_years Model   Time  ΔRMST difference difference_lci
   <fct>    <chr>            <dbl> <fct>   <chr> <chr>      <dbl>          <dbl>
 1 Overall  Overall              5 Overall 5 yr  0.82…      0.821          0.560
 2 Overall  Overall             10 Overall 10 yr 3.91…      3.91           3.08 
 3 Overall  Overall             20 Overall 20 yr 17.0…     17.1           15.2  
 4 Women    Age group            0 <NA>    0 yr  0          0              0    
 5 Women    HPA_1_test           0 <NA>    0 yr  0          0              0    
 6 Women    HPA_2_tests          0 <NA>    0 yr  0          0              0    
 7 Women    HPA_3_tests          0 <NA>    0 yr  0          0              0    
 8 Women    Overall              0 <NA>    0 yr  0          0              0    
 9 Women    Sex                  0 <NA>    0 yr  0          0              0    
10 Women    Age group            5 <NA>    0 yr  0          0              0    
11 Women    HPA_1_test           5 <NA>    0 yr  0          0              0    
12 Women    HPA_2_tests          5 <NA>    0 yr  0          0              0    
13 Women    HPA_3_tests          5 <NA>    0 yr  0          0              0    
14 Women    Overall              5 <NA>    0 yr  0          0              0    
15 Women    Sex                  5 <NA>    5 yr  0.64…      0.645          0.388
16 Women    Age group           10 <NA>    0 yr  0          0              0    
17 Women    HPA_1_test          10 <NA>    0 yr  0          0              0    
18 Women    HPA_2_tests         10 <NA>    0 yr  0          0              0    
19 Women    HPA_3_tests         10 <NA>    0 yr  0          0              0    
20 Women    Overall             10 <NA>    0 yr  0          0              0    
# ℹ 196 more rows
# ℹ 5 more variables: difference_uci <dbl>, years_gain_per_1000 <dbl>,
#   years_gain_per_1000_lci <dbl>, years_gain_per_1000_uci <dbl>,
#   months_gain_per_100py <dbl>
…
print(data_clean, n = 20)

# A tibble: 27 × 14
   Model     Subgroup      Time  ΔRMST  difference difference_lci difference_uci
   <chr>     <fct>         <fct> <chr>       <dbl>          <dbl>          <dbl>
 1 Overall   Overall       5 yr  0.82 …      0.821         0.560           1.08 
 2 Overall   Overall       10 yr 3.91 …      3.91          3.08            4.74 
 3 Overall   Overall       20 yr 17.08…     17.1          15.2            18.9  
 4 Sex1      Men           5 yr  0.98 …      0.981         0.540           1.42 
 5 Sex1      Men           10 yr 4.58 …      4.58          3.18            5.99 
 6 Sex1      Men           20 yr 18.43…     18.4          14.9            22.0  
 7 Sex2      Women         5 yr  0.64 …      0.645         0.388           0.902
 8 Sex2      Women         10 yr 3.11 …      3.11          2.26            3.97 
 9 Sex2      Women         20 yr 15.22…     15.2          13.0            17.5  
10 Age_grp1  Age grp <35   5 yr  0.41 …      0.414         0.160           0.669
11 Age_grp1  Age grp <35   10 yr 1.60 …      1.60          0.615           2.58 
12 Age_grp1  Age grp <35   20 yr 5.35 …      5.35          1.69            9.00 
13 Age_grp2  Age grp 35-49 5 yr  0.59 …      0.593         0.238           0.948
14 Age_grp2  Age grp 35-49 10 yr 3.17 …      3.17          1.49            4.84 
15 Age_grp2  Age grp 35-49 20 yr 14.72…     14.7           3.54           25.9  
16 Age_grp3  Age grp ≥50   5 yr  1.12 …      1.12          0.644           1.60 
17 Age_grp3  Age grp ≥50   10 yr 5.04 …      5.04          1.97            8.10 
18 Age_grp3  Age grp ≥50   20 yr 20.15…     20.1          -0.937          41.2  
19 HPA Count HPA, 1 test   5 yr  0.43 …      0.432         0.0845          0.779
20 HPA Count HPA, 1 test   10 yr 2.15 …      2.15          1.04            3.26 
# ℹ 7 more rows
# ℹ 7 more variables: years_gain_per_1000 <dbl>, years_gain_per_1000_lci <dbl>,
#   years_gain_per_1000_uci <dbl>, months_gain_per_100py <dbl>,
#   time_numeric <dbl>, subgroup_clean <chr>, category <chr>
…
